…
## Dropping NA


::: {.cell}

```{.r .cell-code}
tidyr::drop_na(fertility_sample)
```

::: {.cell-output .cell-output-stdout}

```
# A tibble: 1,000 × 9
   rownames morekids gender1 gender2   age afam  hispanic other  work
      <dbl> <chr>    <chr>   <chr>   <dbl> <chr> <chr>    <chr> <dbl>
 1    18626 no       female  male       26 no    no       no       26
 2    56588 no       male    female     28 no    no       no       24
 3    54486 no       male    female     33 no    no       no        0
 4    97231 no       female  male       33 no    no       no       24
 5   246076 no       female  male       26 no    no       no        0
 6   144960 no       female  male       25 no    no       no       40
 7   222546 yes      female  female     33 no    no       no        0
 8    70657 no       female  male       33 no    no       no        0
 9    18525 no       male    female     35 no    no       no        0
10   123288 yes      female  female     32 no    no       no       52
# ℹ 990 more rows
```
…
::: {.cell}

```{.r .cell-code}
fertility1 <- fertility %>%
  janitor::clean_names(case = "snake")  # clean column names

fertility1
```

::: {.cell-output .cell-output-stdout}

```
# A tibble: 254,654 × 9
   rownames morekids gender1 gender2   age afam  hispanic other  work
      <dbl> <chr>    <chr>   <chr>   <dbl> <chr> <chr>    <chr> <dbl>
 1        1 no       male    female     27 no    no       no        0
 2        2 no       female  male       30 no    no       no       30
 3        3 no       male    female     27 no    no       no        0
 4        4 no       male    female     35 yes   no       no        0
 5        5 no       female  female     30 no    no       no       22
 6        6 no       male    female     26 no    no       no       40
 7        7 no       female  male       29 no    no       no        0
 8        8 no       male    male       33 no    no       no       52
 9        9 no       female  male       29 no    no       no        0
10       10 no       male    female     27 no    no       no        0
# ℹ 254,644 more rows
```
…
```
# A tibble: 1 × 0
```


:::

```{.r .cell-code}
crosstable::crosstable(fertility_sample)
```

::: {.cell-output .cell-output-stdout}

```
# A tibble: 24 × 4
   .id      label    variable   value                    
   <chr>    <chr>    <chr>      <chr>                    
 1 rownames rownames Min / Max  45.0 / 2.5e+05           
 2 rownames rownames Med [IQR]  1.3e+05 [6.3e+04;1.9e+05]
 3 rownames rownames Mean (std) 1.3e+05 (7.4e+04)        
 4 rownames rownames N (NA)     1000 (0)                 
 5 morekids morekids no         603 (60.30%)             
 6 morekids morekids yes        397 (39.70%)             
 7 gender1  gender1  female     483 (48.30%)             
 8 gender1  gender1  male       517 (51.70%)             
 9 gender2  gender2  female     503 (50.30%)             
10 gender2  gender2  male       497 (49.70%)             
# ℹ 14 more rows
```
…
